8 Mini-project 8 - Applying functions through iteration – Pharma Hands-on Exercises
…
adsl_saf %>%
  rowwise(SUBJID) %>%
  summarise(missingData = sum( 
                               is.na( 
                                      c_across( 
                                                where(is.numeric)
                                                )
                                      )
                               )
            )

`summarise()` has grouped output by 'SUBJID'. You can override using the
`.groups` argument.

# A tibble: 254 × 2
# Groups:   SUBJID [254]
   SUBJID missingData
   <chr>        <int>
 1 1015             0
 2 1023             0
 3 1028             0
 4 1033             0
 5 1034             0
 6 1047             0
 7 1097             0
 8 1111             0
 9 1115             0
10 1118             0
# ℹ 244 more rows
…
