3 Mini-project 3 - Generating grouped summary statistics – Pharma Hands-on Exercises
…
Using the select() function before pivot_longer will allow us to select just the variables we want to show in our pivoted, transposed data. Most of the time, we aren’t going to want to transpose EVERY variable. We can define which columns to pivot (transpose) in three ways: we can name them explicitly, we can identify them by column or variable number, or we can use the -<VARIABLE> to tell R which variable to exclude from the pivot. If we wish to exclude more than one variable, we use the c() collection function to define a vector of variable names. In the code below, add the list of summary statistics we calculated above to the select function (excluding min and max, but including range).

Before we pivot (transpose) the data, we have to ensure that the columns we’re about to pivot all have the same type. In the age_stat2 data, the formatted values (mean, sd, range_minmax) are character, but med and n are still numeric. We do this by applying the as.character() function to any variables that meet the condition is.numeric(). Combining mutate() with across() applies the same function to each column variable that meets the condition.

-> R for SAS users: The select() function works like a keep; statement in SAS.

desc_stat_long <- age_stat2 %>%
  ungroup() %>%
  select("TRT01A","SEX", "n", "mean", "med", "sd", "range_minmax") %>% 
  mutate(across(where(is.numeric), .fns = as.character)) %>%
  pivot_longer(-c("TRT01A","SEX"), names_to = "category", values_to = "values" )

 desc_stat_long

# A tibble: 30 × 4
   TRT01A  SEX    category     values 
   <chr>   <chr>  <chr>        <chr>  
 1 Placebo Female n            46     
 2 Placebo Female mean         76.1   
 3 Placebo Female med          77.5   
 4 Placebo Female sd           8.5    
 5 Placebo Female range_minmax (59,88)
 6 Placebo Male   n            33     
 7 Placebo Male   mean         73.4   
 8 Placebo Male   med          74     
 9 Placebo Male   sd           8.1    
10 Placebo Male   range_minmax (52,85)
# ℹ 20 more rows
…
